<?xml version="1.0" encoding="utf-8"  standalone="no"?>
<svg 
 width="600" height="480"
 viewBox="0 0 600 480"
 xmlns="http://www.w3.org/2000/svg"
 xmlns:xlink="http://www.w3.org/1999/xlink"
>

<title>Gnuplot</title>
<desc>Produced by GNUPLOT 5.2 patchlevel 6 </desc>

<g id="gnuplot_canvas">

<rect x="0" y="0" width="600" height="480" fill="#ffffff"/>
<defs>

	<circle id='gpDot' r='0.5' stroke-width='0.5' stroke='currentColor'/>
	<path id='gpPt0' stroke-width='0.222' stroke='currentColor' d='M-1,0 h2 M0,-1 v2'/>
	<path id='gpPt1' stroke-width='0.222' stroke='currentColor' d='M-1,-1 L1,1 M1,-1 L-1,1'/>
	<path id='gpPt2' stroke-width='0.222' stroke='currentColor' d='M-1,0 L1,0 M0,-1 L0,1 M-1,-1 L1,1 M-1,1 L1,-1'/>
	<rect id='gpPt3' stroke-width='0.222' stroke='currentColor' x='-1' y='-1' width='2' height='2'/>
	<rect id='gpPt4' stroke-width='0.222' stroke='currentColor' fill='currentColor' x='-1' y='-1' width='2' height='2'/>
	<circle id='gpPt5' stroke-width='0.222' stroke='currentColor' cx='0' cy='0' r='1'/>
	<use xlink:href='#gpPt5' id='gpPt6' fill='currentColor' stroke='none'/>
	<path id='gpPt7' stroke-width='0.222' stroke='currentColor' d='M0,-1.33 L-1.33,0.67 L1.33,0.67 z'/>
	<use xlink:href='#gpPt7' id='gpPt8' fill='currentColor' stroke='none'/>
	<use xlink:href='#gpPt7' id='gpPt9' stroke='currentColor' transform='rotate(180)'/>
	<use xlink:href='#gpPt9' id='gpPt10' fill='currentColor' stroke='none'/>
	<use xlink:href='#gpPt3' id='gpPt11' stroke='currentColor' transform='rotate(45)'/>
	<use xlink:href='#gpPt11' id='gpPt12' fill='currentColor' stroke='none'/>
	<path id='gpPt13' stroke-width='0.222' stroke='currentColor' d='M0,1.330 L1.265,0.411 L0.782,-1.067 L-0.782,-1.076 L-1.265,0.411 z'/>
	<use xlink:href='#gpPt13' id='gpPt14' fill='currentColor' stroke='none'/>
	<filter id='textbox' filterUnits='objectBoundingBox' x='0' y='0' height='1' width='1'>
	  <feFlood flood-color='#FFFFFF' flood-opacity='1' result='bgnd'/>
	  <feComposite in='SourceGraphic' in2='bgnd' operator='atop'/>
	</filter>
	<filter id='greybox' filterUnits='objectBoundingBox' x='0' y='0' height='1' width='1'>
	  <feFlood flood-color='lightgrey' flood-opacity='1' result='grey'/>
	  <feComposite in='SourceGraphic' in2='grey' operator='atop'/>
	</filter>
</defs>
<g fill="none" color="#FFFFFF" stroke="currentColor" stroke-width="1.00" stroke-linecap="butt" stroke-linejoin="miter">
</g>
<g fill="none" color="black" stroke="currentColor" stroke-width="1.00" stroke-linecap="butt" stroke-linejoin="miter">
	<path stroke='black'  d='M71.9,422.4 L80.9,422.4 M575.0,422.4 L566.0,422.4  '/>	<g transform="translate(63.6,426.3)" stroke="none" fill="black" font-family="Arial" font-size="12.00"  text-anchor="end">
		<text><tspan font-family="Arial" >-1.5</tspan></text>
	</g>
</g>
<g fill="none" color="black" stroke="currentColor" stroke-width="1.00" stroke-linecap="butt" stroke-linejoin="miter">
	<path stroke='black'  d='M71.9,355.0 L80.9,355.0 M575.0,355.0 L566.0,355.0  '/>	<g transform="translate(63.6,358.9)" stroke="none" fill="black" font-family="Arial" font-size="12.00"  text-anchor="end">
		<text><tspan font-family="Arial" >-1</tspan></text>
	</g>
</g>
<g fill="none" color="black" stroke="currentColor" stroke-width="1.00" stroke-linecap="butt" stroke-linejoin="miter">
	<path stroke='black'  d='M71.9,287.6 L80.9,287.6 M575.0,287.6 L566.0,287.6  '/>	<g transform="translate(63.6,291.5)" stroke="none" fill="black" font-family="Arial" font-size="12.00"  text-anchor="end">
		<text><tspan font-family="Arial" >-0.5</tspan></text>
	</g>
</g>
<g fill="none" color="black" stroke="currentColor" stroke-width="1.00" stroke-linecap="butt" stroke-linejoin="miter">
	<path stroke='black'  d='M71.9,220.2 L80.9,220.2 M575.0,220.2 L566.0,220.2  '/>	<g transform="translate(63.6,224.1)" stroke="none" fill="black" font-family="Arial" font-size="12.00"  text-anchor="end">
		<text><tspan font-family="Arial" > 0</tspan></text>
	</g>
</g>
<g fill="none" color="black" stroke="currentColor" stroke-width="1.00" stroke-linecap="butt" stroke-linejoin="miter">
	<path stroke='black'  d='M71.9,152.9 L80.9,152.9 M575.0,152.9 L566.0,152.9  '/>	<g transform="translate(63.6,156.8)" stroke="none" fill="black" font-family="Arial" font-size="12.00"  text-anchor="end">
		<text><tspan font-family="Arial" > 0.5</tspan></text>
	</g>
</g>
<g fill="none" color="black" stroke="currentColor" stroke-width="1.00" stroke-linecap="butt" stroke-linejoin="miter">
	<path stroke='black'  d='M71.9,85.5 L80.9,85.5 M575.0,85.5 L566.0,85.5  '/>	<g transform="translate(63.6,89.4)" stroke="none" fill="black" font-family="Arial" font-size="12.00"  text-anchor="end">
		<text><tspan font-family="Arial" > 1</tspan></text>
	</g>
</g>
<g fill="none" color="black" stroke="currentColor" stroke-width="1.00" stroke-linecap="butt" stroke-linejoin="miter">
	<path stroke='black'  d='M71.9,18.1 L80.9,18.1 M575.0,18.1 L566.0,18.1  '/>	<g transform="translate(63.6,22.0)" stroke="none" fill="black" font-family="Arial" font-size="12.00"  text-anchor="end">
		<text><tspan font-family="Arial" > 1.5</tspan></text>
	</g>
</g>
<g fill="none" color="black" stroke="currentColor" stroke-width="1.00" stroke-linecap="butt" stroke-linejoin="miter">
	<path stroke='black'  d='M71.9,422.4 L71.9,413.4 M71.9,18.1 L71.9,27.1  '/>	<g transform="translate(71.9,444.3)" stroke="none" fill="black" font-family="Arial" font-size="12.00"  text-anchor="middle">
		<text><tspan font-family="Arial" > 0</tspan></text>
	</g>
</g>
<g fill="none" color="black" stroke="currentColor" stroke-width="1.00" stroke-linecap="butt" stroke-linejoin="miter">
	<path stroke='black'  d='M143.8,422.4 L143.8,413.4 M143.8,18.1 L143.8,27.1  '/>	<g transform="translate(143.8,444.3)" stroke="none" fill="black" font-family="Arial" font-size="12.00"  text-anchor="middle">
		<text><tspan font-family="Arial" > 1</tspan></text>
	</g>
</g>
<g fill="none" color="black" stroke="currentColor" stroke-width="1.00" stroke-linecap="butt" stroke-linejoin="miter">
	<path stroke='black'  d='M215.6,422.4 L215.6,413.4 M215.6,18.1 L215.6,27.1  '/>	<g transform="translate(215.6,444.3)" stroke="none" fill="black" font-family="Arial" font-size="12.00"  text-anchor="middle">
		<text><tspan font-family="Arial" > 2</tspan></text>
	</g>
</g>
<g fill="none" color="black" stroke="currentColor" stroke-width="1.00" stroke-linecap="butt" stroke-linejoin="miter">
	<path stroke='black'  d='M287.5,422.4 L287.5,413.4 M287.5,18.1 L287.5,27.1  '/>	<g transform="translate(287.5,444.3)" stroke="none" fill="black" font-family="Arial" font-size="12.00"  text-anchor="middle">
		<text><tspan font-family="Arial" > 3</tspan></text>
	</g>
</g>
<g fill="none" color="black" stroke="currentColor" stroke-width="1.00" stroke-linecap="butt" stroke-linejoin="miter">
	<path stroke='black'  d='M359.4,422.4 L359.4,413.4 M359.4,18.1 L359.4,27.1  '/>	<g transform="translate(359.4,444.3)" stroke="none" fill="black" font-family="Arial" font-size="12.00"  text-anchor="middle">
		<text><tspan font-family="Arial" > 4</tspan></text>
	</g>
</g>
<g fill="none" color="black" stroke="currentColor" stroke-width="1.00" stroke-linecap="butt" stroke-linejoin="miter">
	<path stroke='black'  d='M431.3,422.4 L431.3,413.4 M431.3,18.1 L431.3,27.1  '/>	<g transform="translate(431.3,444.3)" stroke="none" fill="black" font-family="Arial" font-size="12.00"  text-anchor="middle">
		<text><tspan font-family="Arial" > 5</tspan></text>
	</g>
</g>
<g fill="none" color="black" stroke="currentColor" stroke-width="1.00" stroke-linecap="butt" stroke-linejoin="miter">
	<path stroke='black'  d='M503.1,422.4 L503.1,413.4 M503.1,18.1 L503.1,27.1  '/>	<g transform="translate(503.1,444.3)" stroke="none" fill="black" font-family="Arial" font-size="12.00"  text-anchor="middle">
		<text><tspan font-family="Arial" > 6</tspan></text>
	</g>
</g>
<g fill="none" color="black" stroke="currentColor" stroke-width="1.00" stroke-linecap="butt" stroke-linejoin="miter">
	<path stroke='black'  d='M575.0,422.4 L575.0,413.4 M575.0,18.1 L575.0,27.1  '/>	<g transform="translate(575.0,444.3)" stroke="none" fill="black" font-family="Arial" font-size="12.00"  text-anchor="middle">
		<text><tspan font-family="Arial" > 7</tspan></text>
	</g>
</g>
<g fill="none" color="black" stroke="currentColor" stroke-width="1.00" stroke-linecap="butt" stroke-linejoin="miter">
</g>
<g fill="none" color="black" stroke="currentColor" stroke-width="1.00" stroke-linecap="butt" stroke-linejoin="miter">
	<path stroke='black'  d='M71.9,18.1 L71.9,422.4 L575.0,422.4 L575.0,18.1 L71.9,18.1 Z  '/></g>
<g fill="none" color="black" stroke="currentColor" stroke-width="1.00" stroke-linecap="butt" stroke-linejoin="miter">
	<g transform="translate(16.3,220.3) rotate(270)" stroke="none" fill="black" font-family="Arial" font-size="12.00"  text-anchor="middle">
		<text><tspan font-family="Arial" >y</tspan></text>
	</g>
</g>
<g fill="none" color="black" stroke="currentColor" stroke-width="1.00" stroke-linecap="butt" stroke-linejoin="miter">
	<g transform="translate(323.4,471.3)" stroke="none" fill="black" font-family="Arial" font-size="12.00"  text-anchor="middle">
		<text><tspan font-family="Arial" >x</tspan></text>
	</g>
</g>
<g fill="none" color="black" stroke="currentColor" stroke-width="1.00" stroke-linecap="butt" stroke-linejoin="miter">
</g>
	<g id="gnuplot_plot_1" ><title>training data of sin(x)</title>
<g fill="none" color="black" stroke="currentColor" stroke-width="1.00" stroke-linecap="butt" stroke-linejoin="miter">
	<g transform="translate(507.9,40.0)" stroke="none" fill="black" font-family="Arial" font-size="12.00"  text-anchor="end">
		<text><tspan font-family="Arial" >training data of sin(x)</tspan></text>
	</g>
</g>
<g fill="none" color="black" stroke="currentColor" stroke-width="1.00" stroke-linecap="butt" stroke-linejoin="miter">
	<use xlink:href='#gpPt0' transform='translate(71.9,220.2) scale(4.50)' color='rgb(148,   0, 211)'/>
	<use xlink:href='#gpPt0' transform='translate(128.3,125.0) scale(4.50)' color='rgb(148,   0, 211)'/>
	<use xlink:href='#gpPt0' transform='translate(184.8,85.5) scale(4.50)' color='rgb(148,   0, 211)'/>
	<use xlink:href='#gpPt0' transform='translate(241.2,125.0) scale(4.50)' color='rgb(148,   0, 211)'/>
	<use xlink:href='#gpPt0' transform='translate(297.7,220.2) scale(4.50)' color='rgb(148,   0, 211)'/>
	<use xlink:href='#gpPt0' transform='translate(354.1,315.5) scale(4.50)' color='rgb(148,   0, 211)'/>
	<use xlink:href='#gpPt0' transform='translate(410.6,355.0) scale(4.50)' color='rgb(148,   0, 211)'/>
	<use xlink:href='#gpPt0' transform='translate(467.0,315.5) scale(4.50)' color='rgb(148,   0, 211)'/>
	<use xlink:href='#gpPt0' transform='translate(537.3,36.1) scale(4.50)' color='rgb(148,   0, 211)'/>
</g>
	</g>
	<g id="gnuplot_plot_2" ><title>ANN prediction</title>
<g fill="none" color="#FFFFFF" stroke="rgb(148,   0, 211)" stroke-width="2.00" stroke-linecap="butt" stroke-linejoin="miter">
</g>
<g fill="none" color="black" stroke="currentColor" stroke-width="2.00" stroke-linecap="butt" stroke-linejoin="miter">
	<g transform="translate(507.9,58.0)" stroke="none" fill="black" font-family="Arial" font-size="12.00"  text-anchor="end">
		<text><tspan font-family="Arial" >ANN prediction</tspan></text>
	</g>
</g>
<g fill="none" color="black" stroke="currentColor" stroke-width="2.00" stroke-linecap="butt" stroke-linejoin="miter">
	<path stroke='rgb(  0, 158, 115)'  d='M516.2,54.1 L558.4,54.1 M71.9,220.3 L79.1,206.5 L86.3,193.1 L93.5,179.9 L100.6,167.3 L107.8,155.2
		L115.0,143.8 L122.2,133.2 L129.4,123.4 L136.6,114.7 L143.8,106.9 L151.0,100.3 L158.1,94.8 L165.3,90.6
		L172.5,87.7 L179.7,86.1 L186.9,85.8 L194.1,86.8 L201.3,89.1 L208.5,92.8 L215.6,97.7 L222.8,103.9
		L230.0,111.2 L237.2,119.6 L244.4,129.1 L251.6,139.4 L258.8,150.6 L266.0,162.5 L273.1,174.9 L280.3,187.9
		L287.5,201.1 L294.7,214.6 L301.9,228.1 L309.1,241.5 L316.3,254.7 L323.5,267.6 L330.6,280.0 L337.8,291.8
		L345.0,302.9 L352.2,313.1 L359.4,322.4 L366.6,330.6 L373.8,337.8 L380.9,343.8 L388.1,348.5 L395.3,352.0
		L402.5,354.1 L409.7,354.9 L416.9,354.4 L424.1,352.5 L431.3,349.4 L438.4,344.9 L445.6,339.2 L452.8,332.4
		L460.0,324.4 L467.2,315.4 L474.4,305.4 L481.6,294.5 L488.8,282.9 L495.9,270.6 L503.1,257.7 L510.3,244.4
		L517.5,230.7  '/></g>
	</g>
	<g id="gnuplot_plot_3" ><title>ANN derivative</title>
<g fill="none" color="black" stroke="currentColor" stroke-width="2.00" stroke-linecap="butt" stroke-linejoin="miter">
	<g transform="translate(507.9,76.0)" stroke="none" fill="black" font-family="Arial" font-size="12.00"  text-anchor="end">
		<text><tspan font-family="Arial" >ANN derivative</tspan></text>
	</g>
</g>
<g fill="none" color="black" stroke="currentColor" stroke-width="2.00" stroke-linecap="butt" stroke-linejoin="miter">
	<path stroke='rgb( 86, 180, 233)'  d='M516.2,72.1 L558.4,72.1 M71.9,81.9 L79.1,83.9 L86.3,87.0 L93.5,91.2 L100.6,96.4 L107.8,102.7
		L115.0,110.0 L122.2,118.3 L129.4,127.5 L136.6,137.5 L143.8,148.3 L151.0,159.8 L158.1,171.9 L165.3,184.4
		L172.5,197.4 L179.7,210.6 L186.9,223.9 L194.1,237.2 L201.3,250.4 L208.5,263.3 L215.6,275.8 L222.8,287.8
		L230.0,299.1 L237.2,309.7 L244.4,319.4 L251.6,328.1 L258.8,335.7 L266.0,342.2 L273.1,347.4 L280.3,351.4
		L287.5,354.0 L294.7,355.3 L301.9,355.2 L309.1,353.7 L316.3,350.9 L323.5,346.8 L330.6,341.3 L337.8,334.7
		L345.0,326.9 L352.2,318.0 L359.4,308.2 L366.6,297.5 L373.8,286.0 L380.9,273.9 L388.1,261.3 L395.3,248.3
		L402.5,235.0 L409.7,221.7 L416.9,208.3 L424.1,195.1 L431.3,182.1 L438.4,169.5 L445.6,157.4 L452.8,145.9
		L460.0,135.1 L467.2,125.1 L474.4,115.9 L481.6,107.7 L488.8,100.4 L495.9,94.2 L503.1,89.0 L510.3,84.9
		L517.5,81.9  '/></g>
	</g>
	<g id="gnuplot_plot_4" ><title>cos(x)</title>
<g fill="none" color="black" stroke="currentColor" stroke-width="2.00" stroke-linecap="butt" stroke-linejoin="miter">
	<g transform="translate(507.9,94.0)" stroke="none" fill="black" font-family="Arial" font-size="12.00"  text-anchor="end">
		<text><tspan font-family="Arial" >cos(x)</tspan></text>
	</g>
</g>
<g fill="none" color="black" stroke="currentColor" stroke-width="2.00" stroke-linecap="butt" stroke-linejoin="miter">
	<path stroke='rgb(230, 159,   0)' stroke-dasharray=' 5,8'  d='M516.2,90.1 L558.4,90.1 M71.9,85.5 L79.1,86.2 L86.3,88.2 L93.5,91.5 L100.6,96.1 L107.8,102.0
		L115.0,109.0 L122.2,117.2 L129.4,126.4 L136.6,136.5 L143.8,147.4 L151.0,159.1 L158.1,171.4 L165.3,184.2
		L172.5,197.3 L179.7,210.7 L186.9,224.2 L194.1,237.6 L201.3,250.9 L208.5,263.8 L215.6,276.3 L222.8,288.3
		L230.0,299.6 L237.2,310.0 L244.4,319.6 L251.6,328.2 L258.8,335.7 L266.0,342.1 L273.1,347.2 L280.3,351.1
		L287.5,353.7 L294.7,354.9 L301.9,354.8 L309.1,353.3 L316.3,350.5 L323.5,346.5 L330.6,341.1 L337.8,334.5
		L345.0,326.8 L352.2,318.1 L359.4,308.3 L366.6,297.7 L373.8,286.3 L380.9,274.3 L388.1,261.7 L395.3,248.7
		L402.5,235.4 L409.7,221.9 L416.9,208.5 L424.1,195.1 L431.3,182.0 L438.4,169.3 L445.6,157.1 L452.8,145.5
		L460.0,134.7 L467.2,124.7 L474.4,115.7 L481.6,107.8 L488.8,100.9 L495.9,95.3 L503.1,90.9 L510.3,87.7
		L517.5,85.9  '/></g>
	</g>
	<g id="gnuplot_plot_5" ><title>ANN integral</title>
<g fill="none" color="black" stroke="currentColor" stroke-width="2.00" stroke-linecap="butt" stroke-linejoin="miter">
	<g transform="translate(507.9,112.0)" stroke="none" fill="black" font-family="Arial" font-size="12.00"  text-anchor="end">
		<text><tspan font-family="Arial" >ANN integral</tspan></text>
	</g>
</g>
<g fill="none" color="black" stroke="currentColor" stroke-width="2.00" stroke-linecap="butt" stroke-linejoin="miter">
	<path stroke='rgb(240, 228,  66)'  d='M516.2,108.1 L558.4,108.1 M71.9,355.2 L79.1,354.5 L86.3,352.4 L93.5,349.1 L100.6,344.4 L107.8,338.5
		L115.0,331.4 L122.2,323.2 L129.4,314.0 L136.6,303.9 L143.8,292.9 L151.0,281.3 L158.1,269.0 L165.3,256.2
		L172.5,243.1 L179.7,229.8 L186.9,216.3 L194.1,202.9 L201.3,189.7 L208.5,176.7 L215.6,164.2 L222.8,152.3
		L230.0,141.0 L237.2,130.5 L244.4,120.9 L251.6,112.3 L258.8,104.8 L266.0,98.4 L273.1,93.2 L280.3,89.3
		L287.5,86.8 L294.7,85.5 L301.9,85.6 L309.1,87.1 L316.3,89.9 L323.5,94.0 L330.6,99.3 L337.8,105.9
		L345.0,113.6 L352.2,122.4 L359.4,132.2 L366.6,142.8 L373.8,154.2 L380.9,166.3 L388.1,178.9 L395.3,191.9
		L402.5,205.2 L409.7,218.6 L416.9,232.0 L424.1,245.4 L431.3,258.5 L438.4,271.2 L445.6,283.4 L452.8,294.9
		L460.0,305.7 L467.2,315.7 L474.4,324.7 L481.6,332.7 L488.8,339.6 L495.9,345.2 L503.1,349.6 L510.3,352.7
		L517.5,354.4  '/></g>
	</g>
	<g id="gnuplot_plot_6" ><title>-cos(x)</title>
<g fill="none" color="black" stroke="currentColor" stroke-width="2.00" stroke-linecap="butt" stroke-linejoin="miter">
	<g transform="translate(507.9,130.0)" stroke="none" fill="black" font-family="Arial" font-size="12.00"  text-anchor="end">
		<text><tspan font-family="Arial" >-cos(x)</tspan></text>
	</g>
</g>
<g fill="none" color="black" stroke="currentColor" stroke-width="2.00" stroke-linecap="butt" stroke-linejoin="miter">
	<path stroke='rgb(  0, 114, 178)' stroke-dasharray=' 5,8'  d='M516.2,126.1 L558.4,126.1 M71.9,355.0 L79.1,354.3 L86.3,352.3 L93.5,349.0 L100.6,344.4 L107.8,338.5
		L115.0,331.5 L122.2,323.3 L129.4,314.1 L136.6,304.0 L143.8,293.1 L151.0,281.4 L158.1,269.1 L165.3,256.3
		L172.5,243.2 L179.7,229.8 L186.9,216.3 L194.1,202.9 L201.3,189.6 L208.5,176.7 L215.6,164.2 L222.8,152.2
		L230.0,140.9 L237.2,130.5 L244.4,120.9 L251.6,112.3 L258.8,104.8 L266.0,98.4 L273.1,93.3 L280.3,89.4
		L287.5,86.8 L294.7,85.6 L301.9,85.7 L309.1,87.2 L316.3,90.0 L323.5,94.0 L330.6,99.4 L337.8,106.0
		L345.0,113.7 L352.2,122.4 L359.4,132.2 L366.6,142.8 L373.8,154.2 L380.9,166.2 L388.1,178.8 L395.3,191.8
		L402.5,205.1 L409.7,218.6 L416.9,232.0 L424.1,245.4 L431.3,258.5 L438.4,271.2 L445.6,283.4 L452.8,295.0
		L460.0,305.8 L467.2,315.8 L474.4,324.8 L481.6,332.7 L488.8,339.6 L495.9,345.2 L503.1,349.6 L510.3,352.8
		L517.5,354.6  '/></g>
	</g>
<g fill="none" color="black" stroke="currentColor" stroke-width="2.00" stroke-linecap="butt" stroke-linejoin="miter">
</g>
<g fill="none" color="black" stroke="black" stroke-width="1.00" stroke-linecap="butt" stroke-linejoin="miter">
</g>
<g fill="none" color="black" stroke="currentColor" stroke-width="1.00" stroke-linecap="butt" stroke-linejoin="miter">
	<path stroke='black'  d='M71.9,18.1 L71.9,422.4 L575.0,422.4 L575.0,18.1 L71.9,18.1 Z  '/></g>
<g fill="none" color="black" stroke="currentColor" stroke-width="1.00" stroke-linecap="butt" stroke-linejoin="miter">
</g>
</g>
</svg>

