<?xml version="1.0" encoding="utf-8"  standalone="no"?>
<svg 
 width="600" height="480"
 viewBox="0 0 600 480"
 xmlns="http://www.w3.org/2000/svg"
 xmlns:xlink="http://www.w3.org/1999/xlink"
>

<title>Gnuplot</title>
<desc>Produced by GNUPLOT 5.2 patchlevel 6 </desc>

<g id="gnuplot_canvas">

<rect x="0" y="0" width="600" height="480" fill="#ffffff"/>
<defs>

	<circle id='gpDot' r='0.5' stroke-width='0.5' stroke='currentColor'/>
	<path id='gpPt0' stroke-width='0.222' stroke='currentColor' d='M-1,0 h2 M0,-1 v2'/>
	<path id='gpPt1' stroke-width='0.222' stroke='currentColor' d='M-1,-1 L1,1 M1,-1 L-1,1'/>
	<path id='gpPt2' stroke-width='0.222' stroke='currentColor' d='M-1,0 L1,0 M0,-1 L0,1 M-1,-1 L1,1 M-1,1 L1,-1'/>
	<rect id='gpPt3' stroke-width='0.222' stroke='currentColor' x='-1' y='-1' width='2' height='2'/>
	<rect id='gpPt4' stroke-width='0.222' stroke='currentColor' fill='currentColor' x='-1' y='-1' width='2' height='2'/>
	<circle id='gpPt5' stroke-width='0.222' stroke='currentColor' cx='0' cy='0' r='1'/>
	<use xlink:href='#gpPt5' id='gpPt6' fill='currentColor' stroke='none'/>
	<path id='gpPt7' stroke-width='0.222' stroke='currentColor' d='M0,-1.33 L-1.33,0.67 L1.33,0.67 z'/>
	<use xlink:href='#gpPt7' id='gpPt8' fill='currentColor' stroke='none'/>
	<use xlink:href='#gpPt7' id='gpPt9' stroke='currentColor' transform='rotate(180)'/>
	<use xlink:href='#gpPt9' id='gpPt10' fill='currentColor' stroke='none'/>
	<use xlink:href='#gpPt3' id='gpPt11' stroke='currentColor' transform='rotate(45)'/>
	<use xlink:href='#gpPt11' id='gpPt12' fill='currentColor' stroke='none'/>
	<path id='gpPt13' stroke-width='0.222' stroke='currentColor' d='M0,1.330 L1.265,0.411 L0.782,-1.067 L-0.782,-1.076 L-1.265,0.411 z'/>
	<use xlink:href='#gpPt13' id='gpPt14' fill='currentColor' stroke='none'/>
	<filter id='textbox' filterUnits='objectBoundingBox' x='0' y='0' height='1' width='1'>
	  <feFlood flood-color='#FFFFFF' flood-opacity='1' result='bgnd'/>
	  <feComposite in='SourceGraphic' in2='bgnd' operator='atop'/>
	</filter>
	<filter id='greybox' filterUnits='objectBoundingBox' x='0' y='0' height='1' width='1'>
	  <feFlood flood-color='lightgrey' flood-opacity='1' result='grey'/>
	  <feComposite in='SourceGraphic' in2='grey' operator='atop'/>
	</filter>
</defs>
<g fill="none" color="#FFFFFF" stroke="currentColor" stroke-width="1.00" stroke-linecap="butt" stroke-linejoin="miter">
</g>
<g fill="none" color="black" stroke="currentColor" stroke-width="1.00" stroke-linecap="butt" stroke-linejoin="miter">
	<path stroke='black'  d='M71.9,422.4 L80.9,422.4 M575.0,422.4 L566.0,422.4  '/>	<g transform="translate(63.6,426.3)" stroke="none" fill="black" font-family="Arial" font-size="12.00"  text-anchor="end">
		<text><tspan font-family="Arial" >-1</tspan></text>
	</g>
</g>
<g fill="none" color="black" stroke="currentColor" stroke-width="1.00" stroke-linecap="butt" stroke-linejoin="miter">
	<path stroke='black'  d='M71.9,382.0 L80.9,382.0 M575.0,382.0 L566.0,382.0  '/>	<g transform="translate(63.6,385.9)" stroke="none" fill="black" font-family="Arial" font-size="12.00"  text-anchor="end">
		<text><tspan font-family="Arial" >-0.8</tspan></text>
	</g>
</g>
<g fill="none" color="black" stroke="currentColor" stroke-width="1.00" stroke-linecap="butt" stroke-linejoin="miter">
	<path stroke='black'  d='M71.9,341.5 L80.9,341.5 M575.0,341.5 L566.0,341.5  '/>	<g transform="translate(63.6,345.4)" stroke="none" fill="black" font-family="Arial" font-size="12.00"  text-anchor="end">
		<text><tspan font-family="Arial" >-0.6</tspan></text>
	</g>
</g>
<g fill="none" color="black" stroke="currentColor" stroke-width="1.00" stroke-linecap="butt" stroke-linejoin="miter">
	<path stroke='black'  d='M71.9,301.1 L80.9,301.1 M575.0,301.1 L566.0,301.1  '/>	<g transform="translate(63.6,305.0)" stroke="none" fill="black" font-family="Arial" font-size="12.00"  text-anchor="end">
		<text><tspan font-family="Arial" >-0.4</tspan></text>
	</g>
</g>
<g fill="none" color="black" stroke="currentColor" stroke-width="1.00" stroke-linecap="butt" stroke-linejoin="miter">
	<path stroke='black'  d='M71.9,260.7 L80.9,260.7 M575.0,260.7 L566.0,260.7  '/>	<g transform="translate(63.6,264.6)" stroke="none" fill="black" font-family="Arial" font-size="12.00"  text-anchor="end">
		<text><tspan font-family="Arial" >-0.2</tspan></text>
	</g>
</g>
<g fill="none" color="black" stroke="currentColor" stroke-width="1.00" stroke-linecap="butt" stroke-linejoin="miter">
	<path stroke='black'  d='M71.9,220.2 L80.9,220.2 M575.0,220.2 L566.0,220.2  '/>	<g transform="translate(63.6,224.1)" stroke="none" fill="black" font-family="Arial" font-size="12.00"  text-anchor="end">
		<text><tspan font-family="Arial" > 0</tspan></text>
	</g>
</g>
<g fill="none" color="black" stroke="currentColor" stroke-width="1.00" stroke-linecap="butt" stroke-linejoin="miter">
	<path stroke='black'  d='M71.9,179.8 L80.9,179.8 M575.0,179.8 L566.0,179.8  '/>	<g transform="translate(63.6,183.7)" stroke="none" fill="black" font-family="Arial" font-size="12.00"  text-anchor="end">
		<text><tspan font-family="Arial" > 0.2</tspan></text>
	</g>
</g>
<g fill="none" color="black" stroke="currentColor" stroke-width="1.00" stroke-linecap="butt" stroke-linejoin="miter">
	<path stroke='black'  d='M71.9,139.4 L80.9,139.4 M575.0,139.4 L566.0,139.4  '/>	<g transform="translate(63.6,143.3)" stroke="none" fill="black" font-family="Arial" font-size="12.00"  text-anchor="end">
		<text><tspan font-family="Arial" > 0.4</tspan></text>
	</g>
</g>
<g fill="none" color="black" stroke="currentColor" stroke-width="1.00" stroke-linecap="butt" stroke-linejoin="miter">
	<path stroke='black'  d='M71.9,99.0 L80.9,99.0 M575.0,99.0 L566.0,99.0  '/>	<g transform="translate(63.6,102.9)" stroke="none" fill="black" font-family="Arial" font-size="12.00"  text-anchor="end">
		<text><tspan font-family="Arial" > 0.6</tspan></text>
	</g>
</g>
<g fill="none" color="black" stroke="currentColor" stroke-width="1.00" stroke-linecap="butt" stroke-linejoin="miter">
	<path stroke='black'  d='M71.9,58.5 L80.9,58.5 M575.0,58.5 L566.0,58.5  '/>	<g transform="translate(63.6,62.4)" stroke="none" fill="black" font-family="Arial" font-size="12.00"  text-anchor="end">
		<text><tspan font-family="Arial" > 0.8</tspan></text>
	</g>
</g>
<g fill="none" color="black" stroke="currentColor" stroke-width="1.00" stroke-linecap="butt" stroke-linejoin="miter">
	<path stroke='black'  d='M71.9,18.1 L80.9,18.1 M575.0,18.1 L566.0,18.1  '/>	<g transform="translate(63.6,22.0)" stroke="none" fill="black" font-family="Arial" font-size="12.00"  text-anchor="end">
		<text><tspan font-family="Arial" > 1</tspan></text>
	</g>
</g>
<g fill="none" color="black" stroke="currentColor" stroke-width="1.00" stroke-linecap="butt" stroke-linejoin="miter">
	<path stroke='black'  d='M71.9,422.4 L71.9,413.4 M71.9,18.1 L71.9,27.1  '/>	<g transform="translate(71.9,444.3)" stroke="none" fill="black" font-family="Arial" font-size="12.00"  text-anchor="middle">
		<text><tspan font-family="Arial" > 0</tspan></text>
	</g>
</g>
<g fill="none" color="black" stroke="currentColor" stroke-width="1.00" stroke-linecap="butt" stroke-linejoin="miter">
	<path stroke='black'  d='M155.8,422.4 L155.8,413.4 M155.8,18.1 L155.8,27.1  '/>	<g transform="translate(155.8,444.3)" stroke="none" fill="black" font-family="Arial" font-size="12.00"  text-anchor="middle">
		<text><tspan font-family="Arial" > 1</tspan></text>
	</g>
</g>
<g fill="none" color="black" stroke="currentColor" stroke-width="1.00" stroke-linecap="butt" stroke-linejoin="miter">
	<path stroke='black'  d='M239.6,422.4 L239.6,413.4 M239.6,18.1 L239.6,27.1  '/>	<g transform="translate(239.6,444.3)" stroke="none" fill="black" font-family="Arial" font-size="12.00"  text-anchor="middle">
		<text><tspan font-family="Arial" > 2</tspan></text>
	</g>
</g>
<g fill="none" color="black" stroke="currentColor" stroke-width="1.00" stroke-linecap="butt" stroke-linejoin="miter">
	<path stroke='black'  d='M323.5,422.4 L323.5,413.4 M323.5,18.1 L323.5,27.1  '/>	<g transform="translate(323.5,444.3)" stroke="none" fill="black" font-family="Arial" font-size="12.00"  text-anchor="middle">
		<text><tspan font-family="Arial" > 3</tspan></text>
	</g>
</g>
<g fill="none" color="black" stroke="currentColor" stroke-width="1.00" stroke-linecap="butt" stroke-linejoin="miter">
	<path stroke='black'  d='M407.3,422.4 L407.3,413.4 M407.3,18.1 L407.3,27.1  '/>	<g transform="translate(407.3,444.3)" stroke="none" fill="black" font-family="Arial" font-size="12.00"  text-anchor="middle">
		<text><tspan font-family="Arial" > 4</tspan></text>
	</g>
</g>
<g fill="none" color="black" stroke="currentColor" stroke-width="1.00" stroke-linecap="butt" stroke-linejoin="miter">
	<path stroke='black'  d='M491.2,422.4 L491.2,413.4 M491.2,18.1 L491.2,27.1  '/>	<g transform="translate(491.2,444.3)" stroke="none" fill="black" font-family="Arial" font-size="12.00"  text-anchor="middle">
		<text><tspan font-family="Arial" > 5</tspan></text>
	</g>
</g>
<g fill="none" color="black" stroke="currentColor" stroke-width="1.00" stroke-linecap="butt" stroke-linejoin="miter">
	<path stroke='black'  d='M575.0,422.4 L575.0,413.4 M575.0,18.1 L575.0,27.1  '/>	<g transform="translate(575.0,444.3)" stroke="none" fill="black" font-family="Arial" font-size="12.00"  text-anchor="middle">
		<text><tspan font-family="Arial" > 6</tspan></text>
	</g>
</g>
<g fill="none" color="black" stroke="currentColor" stroke-width="1.00" stroke-linecap="butt" stroke-linejoin="miter">
</g>
<g fill="none" color="black" stroke="currentColor" stroke-width="1.00" stroke-linecap="butt" stroke-linejoin="miter">
	<path stroke='black'  d='M71.9,18.1 L71.9,422.4 L575.0,422.4 L575.0,18.1 L71.9,18.1 Z  '/></g>
<g fill="none" color="black" stroke="currentColor" stroke-width="1.00" stroke-linecap="butt" stroke-linejoin="miter">
	<g transform="translate(16.3,220.3) rotate(270)" stroke="none" fill="black" font-family="Arial" font-size="12.00"  text-anchor="middle">
		<text><tspan font-family="Arial" >y</tspan></text>
	</g>
</g>
<g fill="none" color="black" stroke="currentColor" stroke-width="1.00" stroke-linecap="butt" stroke-linejoin="miter">
	<g transform="translate(323.4,471.3)" stroke="none" fill="black" font-family="Arial" font-size="12.00"  text-anchor="middle">
		<text><tspan font-family="Arial" >x</tspan></text>
	</g>
</g>
<g fill="none" color="black" stroke="currentColor" stroke-width="1.00" stroke-linecap="butt" stroke-linejoin="miter">
</g>
	<g id="gnuplot_plot_1" ><title>ode solution to sin(x)</title>
<g fill="none" color="#FFFFFF" stroke="currentColor" stroke-width="3.00" stroke-linecap="butt" stroke-linejoin="miter">
</g>
<g fill="none" color="black" stroke="currentColor" stroke-width="3.00" stroke-linecap="butt" stroke-linejoin="miter">
	<g transform="translate(507.9,40.0)" stroke="none" fill="black" font-family="Arial" font-size="12.00"  text-anchor="end">
		<text><tspan font-family="Arial" >ode solution to sin(x)</tspan></text>
	</g>
</g>
<g fill="none" color="black" stroke="currentColor" stroke-width="3.00" stroke-linecap="butt" stroke-linejoin="miter">
	<path stroke='rgb(148,   0, 211)' stroke-dasharray='7.5,12.0'  d='M516.2,36.1 L558.4,36.1 M71.9,220.2 L74.0,215.0 L76.1,210.0 L78.1,205.0 L80.1,200.1 L82.1,195.3
		L84.1,190.5 L86.1,185.8 L88.1,181.0 L90.1,176.3 L92.1,171.7 L94.1,167.0 L96.1,162.4 L98.0,157.8
		L100.0,153.3 L102.0,148.8 L104.0,144.3 L106.0,139.9 L108.0,135.5 L110.0,131.2 L112.0,126.9 L114.0,122.7
		L115.9,118.5 L117.9,114.4 L119.9,110.4 L121.9,106.4 L123.9,102.4 L125.9,98.6 L127.9,94.8 L129.9,91.1
		L131.9,87.4 L133.9,83.8 L135.8,80.3 L137.8,76.9 L139.8,73.6 L141.8,70.3 L143.8,67.2 L145.8,64.1
		L147.8,61.1 L149.8,58.2 L151.8,55.4 L153.7,52.6 L155.7,50.0 L157.7,47.5 L159.7,45.0 L161.7,42.7
		L163.7,40.5 L165.7,38.3 L167.7,36.3 L169.7,34.4 L171.6,32.5 L173.6,30.8 L175.6,29.2 L177.6,27.7
		L179.6,26.3 L181.6,25.0 L183.6,23.8 L185.6,22.8 L187.6,21.8 L189.5,21.0 L191.5,20.2 L193.5,19.6
		L195.5,19.1 L197.5,18.7 L199.5,18.4 L201.5,18.3 L203.5,18.2 L205.5,18.3 L207.5,18.4 L209.4,18.7
		L211.4,19.1 L213.4,19.7 L215.4,20.3 L217.4,21.0 L219.4,21.9 L221.4,22.8 L223.4,23.9 L225.4,25.1
		L227.3,26.4 L229.3,27.8 L231.3,29.3 L233.3,30.9 L235.3,32.7 L237.3,34.5 L239.3,36.4 L241.3,38.5
		L243.3,40.6 L245.3,42.9 L247.2,45.2 L249.2,47.6 L251.2,50.2 L253.2,52.8 L255.2,55.5 L257.2,58.4
		L259.2,61.3 L261.2,64.3 L263.2,67.4 L265.1,70.5 L267.1,73.8 L269.1,77.1 L271.1,80.6 L273.1,84.1
		L275.1,87.7 L277.1,91.3 L279.1,95.0 L281.1,98.8 L283.1,102.7 L285.0,106.6 L287.0,110.6 L289.0,114.7
		L291.0,118.8 L293.0,123.0 L295.0,127.2 L297.0,131.5 L299.0,135.8 L301.0,140.2 L302.9,144.6 L304.9,149.1
		L306.9,153.6 L308.9,158.1 L310.9,162.7 L312.9,167.3 L314.9,171.9 L316.9,176.6 L318.9,181.3 L320.9,186.0
		L322.8,190.7 L324.8,195.5 L326.8,200.2 L328.8,205.0 L330.8,209.8 L332.8,214.6 L334.8,219.4 L336.8,224.2
		L338.8,229.0 L340.8,233.7 L342.7,238.5 L344.7,243.3 L346.7,248.0 L348.7,252.8 L350.7,257.5 L352.7,262.2
		L354.7,266.9 L356.7,271.5 L358.7,276.1 L360.6,280.7 L362.6,285.3 L364.6,289.8 L366.6,294.3 L368.6,298.7
		L370.6,303.1 L372.6,307.4 L374.6,311.7 L376.6,316.0 L378.6,320.2 L380.5,324.3 L382.5,328.4 L384.5,332.4
		L386.5,336.3 L388.5,340.2 L390.5,344.1 L392.5,347.8 L394.5,351.5 L396.5,355.1 L398.5,358.6 L400.4,362.1
		L402.4,365.4 L404.4,368.7 L406.4,371.9 L408.4,375.0 L410.4,378.1 L412.4,381.0 L414.4,383.8 L416.4,386.6
		L418.4,389.3 L420.3,391.8 L422.3,394.3 L424.3,396.7 L426.3,399.0 L428.3,401.1 L430.3,403.2 L432.3,405.2
		L434.3,407.0 L436.3,408.8 L438.3,410.5 L440.2,412.0 L442.2,413.4 L444.2,414.8 L446.2,416.0 L448.2,417.1
		L450.2,418.1 L452.2,419.0 L454.2,419.8 L456.2,420.4 L458.2,421.0 L460.1,421.4 L462.1,421.8 L464.1,422.0
		L466.1,422.1 L468.1,422.0 L470.1,421.9 L472.1,421.7 L474.1,421.3 L476.1,420.8 L478.1,420.3 L480.0,419.6
		L482.0,418.8 L484.0,417.8 L486.0,416.8 L488.0,415.7 L490.0,414.4 L491.4,413.6  '/></g>
	</g>
	<g id="gnuplot_plot_2" ><title>sin(x)</title>
<g fill="none" color="#FFFFFF" stroke="rgb(148,   0, 211)" stroke-width="5.00" stroke-linecap="butt" stroke-linejoin="miter">
</g>
<g fill="none" color="black" stroke="currentColor" stroke-width="5.00" stroke-linecap="butt" stroke-linejoin="miter">
	<g transform="translate(507.9,58.0)" stroke="none" fill="black" font-family="Arial" font-size="12.00"  text-anchor="end">
		<text><tspan font-family="Arial" >sin(x)</tspan></text>
	</g>
</g>
<g fill="none" color="black" stroke="currentColor" stroke-width="5.00" stroke-linecap="butt" stroke-linejoin="miter">
	<path stroke='rgb(  0, 158, 115)' stroke-dasharray='5.0,10.0'  d='M516.2,54.1 L558.4,54.1 M71.9,220.2 L76.1,210.0 L80.4,199.9 L84.6,189.7 L88.8,179.7 L93.1,169.7
		L97.3,159.9 L101.6,150.2 L105.8,140.7 L110.0,131.4 L114.3,122.4 L118.5,113.6 L122.7,105.0 L127.0,96.8
		L131.2,88.9 L135.5,81.3 L139.7,74.0 L143.9,67.2 L148.2,60.7 L152.4,54.6 L156.6,49.0 L160.9,43.8
		L165.1,39.0 L169.4,34.7 L173.6,30.9 L177.8,27.6 L182.1,24.7 L186.3,22.4 L190.5,20.5 L194.8,19.2
		L199.0,18.4 L203.3,18.1 L207.5,18.3 L211.7,19.0 L216.0,20.3 L220.2,22.0 L224.4,24.3 L228.7,27.1
		L232.9,30.3 L237.2,34.1 L241.4,38.3 L245.6,43.0 L249.9,48.1 L254.1,53.7 L258.3,59.7 L262.6,66.1
		L266.8,72.9 L271.1,80.1 L275.3,87.6 L279.5,95.5 L283.8,103.7 L288.0,112.1 L292.2,120.9 L296.5,129.9
		L300.7,139.2 L305.0,148.6 L309.2,158.3 L313.4,168.1 L317.7,178.0 L321.9,188.1 L326.1,198.2 L330.4,208.4
		L334.6,218.6 L338.9,228.8 L343.1,239.0 L347.3,249.1 L351.6,259.2 L355.8,269.2 L360.0,279.0 L364.3,288.7
		L368.5,298.2 L372.8,307.5 L377.0,316.6 L381.2,325.5 L385.5,334.1 L389.7,342.4 L393.9,350.4 L398.2,358.0
		L402.4,365.3 L406.7,372.2 L410.9,378.8 L415.1,384.9 L419.4,390.6 L423.6,395.9 L427.8,400.7 L432.1,405.1
		L436.3,409.0 L440.6,412.4 L444.8,415.3 L449.0,417.8 L453.3,419.7 L457.5,421.1 L461.7,422.0 L466.0,422.4
		L470.2,422.3 L474.5,421.6 L478.7,420.4 L482.9,418.8 L487.2,416.6 L491.4,413.9  '/></g>
	</g>
<g fill="none" color="#FFFFFF" stroke="rgb(  0, 158, 115)" stroke-width="2.00" stroke-linecap="butt" stroke-linejoin="miter">
</g>
<g fill="none" color="black" stroke="currentColor" stroke-width="2.00" stroke-linecap="butt" stroke-linejoin="miter">
</g>
<g fill="none" color="black" stroke="black" stroke-width="1.00" stroke-linecap="butt" stroke-linejoin="miter">
</g>
<g fill="none" color="black" stroke="currentColor" stroke-width="1.00" stroke-linecap="butt" stroke-linejoin="miter">
	<path stroke='black'  d='M71.9,18.1 L71.9,422.4 L575.0,422.4 L575.0,18.1 L71.9,18.1 Z  '/></g>
<g fill="none" color="black" stroke="currentColor" stroke-width="1.00" stroke-linecap="butt" stroke-linejoin="miter">
</g>
</g>
</svg>

