<?xml version="1.0" encoding="utf-8"  standalone="no"?>
<svg 
 width="600" height="480"
 viewBox="0 0 600 480"
 xmlns="http://www.w3.org/2000/svg"
 xmlns:xlink="http://www.w3.org/1999/xlink"
>

<title>Gnuplot</title>
<desc>Produced by GNUPLOT 5.2 patchlevel 2 </desc>

<g id="gnuplot_canvas">

<rect x="0" y="0" width="600" height="480" fill="#ffffff"/>
<defs>

	<circle id='gpDot' r='0.5' stroke-width='0.5'/>
	<path id='gpPt0' stroke-width='0.222' stroke='currentColor' d='M-1,0 h2 M0,-1 v2'/>
	<path id='gpPt1' stroke-width='0.222' stroke='currentColor' d='M-1,-1 L1,1 M1,-1 L-1,1'/>
	<path id='gpPt2' stroke-width='0.222' stroke='currentColor' d='M-1,0 L1,0 M0,-1 L0,1 M-1,-1 L1,1 M-1,1 L1,-1'/>
	<rect id='gpPt3' stroke-width='0.222' stroke='currentColor' x='-1' y='-1' width='2' height='2'/>
	<rect id='gpPt4' stroke-width='0.222' stroke='currentColor' fill='currentColor' x='-1' y='-1' width='2' height='2'/>
	<circle id='gpPt5' stroke-width='0.222' stroke='currentColor' cx='0' cy='0' r='1'/>
	<use xlink:href='#gpPt5' id='gpPt6' fill='currentColor' stroke='none'/>
	<path id='gpPt7' stroke-width='0.222' stroke='currentColor' d='M0,-1.33 L-1.33,0.67 L1.33,0.67 z'/>
	<use xlink:href='#gpPt7' id='gpPt8' fill='currentColor' stroke='none'/>
	<use xlink:href='#gpPt7' id='gpPt9' stroke='currentColor' transform='rotate(180)'/>
	<use xlink:href='#gpPt9' id='gpPt10' fill='currentColor' stroke='none'/>
	<use xlink:href='#gpPt3' id='gpPt11' stroke='currentColor' transform='rotate(45)'/>
	<use xlink:href='#gpPt11' id='gpPt12' fill='currentColor' stroke='none'/>
	<path id='gpPt13' stroke-width='0.222' stroke='currentColor' d='M0,1.330 L1.265,0.411 L0.782,-1.067 L-0.782,-1.076 L-1.265,0.411 z'/>
	<use xlink:href='#gpPt13' id='gpPt14' fill='currentColor' stroke='none'/>
	<filter id='textbox' filterUnits='objectBoundingBox' x='0' y='0' height='1' width='1'>
	  <feFlood flood-color='#FFFFFF' flood-opacity='1' result='bgnd'/>
	  <feComposite in='SourceGraphic' in2='bgnd' operator='atop'/>
	</filter>
	<filter id='greybox' filterUnits='objectBoundingBox' x='0' y='0' height='1' width='1'>
	  <feFlood flood-color='lightgrey' flood-opacity='1' result='grey'/>
	  <feComposite in='SourceGraphic' in2='grey' operator='atop'/>
	</filter>
</defs>
<g fill="none" color="#FFFFFF" stroke="currentColor" stroke-width="1.00" stroke-linecap="butt" stroke-linejoin="miter">
</g>
<g fill="none" color="black" stroke="currentColor" stroke-width="1.00" stroke-linecap="butt" stroke-linejoin="miter">
	<path stroke='black'  d='M105.1,422.4 L114.1,422.4 M575.0,422.4 L566.0,422.4  '/>	<g transform="translate(96.8,426.3)" stroke="none" fill="black" font-family="Arial" font-size="12.00"  text-anchor="end">
		<text><tspan font-family="Arial" >0.000001</tspan></text>
	</g>
</g>
<g fill="none" color="black" stroke="currentColor" stroke-width="1.00" stroke-linecap="butt" stroke-linejoin="miter">
	<path stroke='black'  d='M105.1,392.0 L109.6,392.0 M575.0,392.0 L570.5,392.0 M105.1,374.2 L109.6,374.2 M575.0,374.2 L570.5,374.2
		M105.1,361.5 L109.6,361.5 M575.0,361.5 L570.5,361.5 M105.1,351.8 L109.6,351.8 M575.0,351.8 L570.5,351.8
		M105.1,343.7 L109.6,343.7 M575.0,343.7 L570.5,343.7 M105.1,337.0 L109.6,337.0 M575.0,337.0 L570.5,337.0
		M105.1,331.1 L109.6,331.1 M575.0,331.1 L570.5,331.1 M105.1,325.9 L109.6,325.9 M575.0,325.9 L570.5,325.9
		M105.1,321.3 L114.1,321.3 M575.0,321.3 L566.0,321.3  '/>	<g transform="translate(96.8,325.2)" stroke="none" fill="black" font-family="Arial" font-size="12.00"  text-anchor="end">
		<text><tspan font-family="Arial" >0.000010</tspan></text>
	</g>
</g>
<g fill="none" color="black" stroke="currentColor" stroke-width="1.00" stroke-linecap="butt" stroke-linejoin="miter">
	<path stroke='black'  d='M105.1,290.9 L109.6,290.9 M575.0,290.9 L570.5,290.9 M105.1,273.1 L109.6,273.1 M575.0,273.1 L570.5,273.1
		M105.1,260.5 L109.6,260.5 M575.0,260.5 L570.5,260.5 M105.1,250.7 L109.6,250.7 M575.0,250.7 L570.5,250.7
		M105.1,242.7 L109.6,242.7 M575.0,242.7 L570.5,242.7 M105.1,235.9 L109.6,235.9 M575.0,235.9 L570.5,235.9
		M105.1,230.0 L109.6,230.0 M575.0,230.0 L570.5,230.0 M105.1,224.9 L109.6,224.9 M575.0,224.9 L570.5,224.9
		M105.1,220.2 L114.1,220.2 M575.0,220.2 L566.0,220.2  '/>	<g transform="translate(96.8,224.1)" stroke="none" fill="black" font-family="Arial" font-size="12.00"  text-anchor="end">
		<text><tspan font-family="Arial" >0.000100</tspan></text>
	</g>
</g>
<g fill="none" color="black" stroke="currentColor" stroke-width="1.00" stroke-linecap="butt" stroke-linejoin="miter">
	<path stroke='black'  d='M105.1,189.8 L109.6,189.8 M575.0,189.8 L570.5,189.8 M105.1,172.0 L109.6,172.0 M575.0,172.0 L570.5,172.0
		M105.1,159.4 L109.6,159.4 M575.0,159.4 L570.5,159.4 M105.1,149.6 L109.6,149.6 M575.0,149.6 L570.5,149.6
		M105.1,141.6 L109.6,141.6 M575.0,141.6 L570.5,141.6 M105.1,134.8 L109.6,134.8 M575.0,134.8 L570.5,134.8
		M105.1,129.0 L109.6,129.0 M575.0,129.0 L570.5,129.0 M105.1,123.8 L109.6,123.8 M575.0,123.8 L570.5,123.8
		M105.1,119.2 L114.1,119.2 M575.0,119.2 L566.0,119.2  '/>	<g transform="translate(96.8,123.1)" stroke="none" fill="black" font-family="Arial" font-size="12.00"  text-anchor="end">
		<text><tspan font-family="Arial" >0.001000</tspan></text>
	</g>
</g>
<g fill="none" color="black" stroke="currentColor" stroke-width="1.00" stroke-linecap="butt" stroke-linejoin="miter">
	<path stroke='black'  d='M105.1,88.7 L109.6,88.7 M575.0,88.7 L570.5,88.7 M105.1,70.9 L109.6,70.9 M575.0,70.9 L570.5,70.9
		M105.1,58.3 L109.6,58.3 M575.0,58.3 L570.5,58.3 M105.1,48.5 L109.6,48.5 M575.0,48.5 L570.5,48.5
		M105.1,40.5 L109.6,40.5 M575.0,40.5 L570.5,40.5 M105.1,33.8 L109.6,33.8 M575.0,33.8 L570.5,33.8
		M105.1,27.9 L109.6,27.9 M575.0,27.9 L570.5,27.9 M105.1,22.7 L109.6,22.7 M575.0,22.7 L570.5,22.7
		M105.1,18.1 L114.1,18.1 M575.0,18.1 L566.0,18.1  '/>	<g transform="translate(96.8,22.0)" stroke="none" fill="black" font-family="Arial" font-size="12.00"  text-anchor="end">
		<text><tspan font-family="Arial" >0.010000</tspan></text>
	</g>
</g>
<g fill="none" color="black" stroke="currentColor" stroke-width="1.00" stroke-linecap="butt" stroke-linejoin="miter">
	<path stroke='black'  d='M105.1,422.4 L105.1,413.4 M105.1,18.1 L105.1,27.1  '/>	<g transform="translate(105.1,444.3)" stroke="none" fill="black" font-family="Arial" font-size="12.00"  text-anchor="middle">
		<text><tspan font-family="Arial" > 100000</tspan></text>
	</g>
</g>
<g fill="none" color="black" stroke="currentColor" stroke-width="1.00" stroke-linecap="butt" stroke-linejoin="miter">
	<path stroke='black'  d='M176.0,422.4 L176.0,417.9 M176.0,18.1 L176.0,22.6 M217.4,422.4 L217.4,417.9 M217.4,18.1 L217.4,22.6
		M246.9,422.4 L246.9,417.9 M246.9,18.1 L246.9,22.6 M269.7,422.4 L269.7,417.9 M269.7,18.1 L269.7,22.6
		M288.3,422.4 L288.3,417.9 M288.3,18.1 L288.3,22.6 M304.1,422.4 L304.1,417.9 M304.1,18.1 L304.1,22.6
		M317.7,422.4 L317.7,417.9 M317.7,18.1 L317.7,22.6 M329.8,422.4 L329.8,417.9 M329.8,18.1 L329.8,22.6
		M340.6,422.4 L340.6,413.4 M340.6,18.1 L340.6,27.1  '/>	<g transform="translate(340.6,444.3)" stroke="none" fill="black" font-family="Arial" font-size="12.00"  text-anchor="middle">
		<text><tspan font-family="Arial" > 1x10</tspan><tspan font-family="Arial"  font-size="9.6" dy="-6.00px">6</tspan><tspan font-size="12.0" dy="6.00"></tspan></text>
	</g>
</g>
<g fill="none" color="black" stroke="currentColor" stroke-width="1.00" stroke-linecap="butt" stroke-linejoin="miter">
	<path stroke='black'  d='M411.4,422.4 L411.4,417.9 M411.4,18.1 L411.4,22.6 M452.9,422.4 L452.9,417.9 M452.9,18.1 L452.9,22.6
		M482.3,422.4 L482.3,417.9 M482.3,18.1 L482.3,22.6 M505.1,422.4 L505.1,417.9 M505.1,18.1 L505.1,22.6
		M523.8,422.4 L523.8,417.9 M523.8,18.1 L523.8,22.6 M539.6,422.4 L539.6,417.9 M539.6,18.1 L539.6,22.6
		M553.2,422.4 L553.2,417.9 M553.2,18.1 L553.2,22.6 M565.3,422.4 L565.3,417.9 M565.3,18.1 L565.3,22.6
		 '/></g>
<g fill="none" color="black" stroke="currentColor" stroke-width="1.00" stroke-linecap="butt" stroke-linejoin="miter">
	<path stroke='black'  d='M105.1,18.1 L105.1,422.4 L575.0,422.4 L575.0,18.1 L105.1,18.1 Z  '/></g>
<g fill="none" color="black" stroke="currentColor" stroke-width="1.00" stroke-linecap="butt" stroke-linejoin="miter">
	<g transform="translate(16.3,220.3) rotate(270)" stroke="none" fill="black" font-family="Arial" font-size="12.00"  text-anchor="middle">
		<text><tspan font-family="Arial" >log(pi estimation-pi)</tspan></text>
	</g>
</g>
<g fill="none" color="black" stroke="currentColor" stroke-width="1.00" stroke-linecap="butt" stroke-linejoin="miter">
	<g transform="translate(340.0,471.3)" stroke="none" fill="black" font-family="Arial" font-size="12.00"  text-anchor="middle">
		<text><tspan font-family="Arial" >n</tspan></text>
	</g>
</g>
<g fill="none" color="black" stroke="currentColor" stroke-width="1.00" stroke-linecap="butt" stroke-linejoin="miter">
</g>
	<g id="gnuplot_plot_1" ><title>OpenMP solution</title>
<g fill="none" color="#FFFFFF" stroke="currentColor" stroke-width="2.00" stroke-linecap="butt" stroke-linejoin="miter">
</g>
<g fill="none" color="black" stroke="currentColor" stroke-width="2.00" stroke-linecap="butt" stroke-linejoin="miter">
	<g transform="translate(507.9,40.0)" stroke="none" fill="black" font-family="Arial" font-size="12.00"  text-anchor="end">
		<text><tspan font-family="Arial" >OpenMP solution</tspan></text>
	</g>
</g>
<g fill="none" color="black" stroke="currentColor" stroke-width="2.00" stroke-linecap="butt" stroke-linejoin="miter">
	<path stroke='rgb(148,   0, 211)'  d='M516.2,36.1 L558.4,36.1 M105.1,56.7 L176.0,248.4 L217.4,131.6 L246.9,81.4 L269.7,66.1 L288.3,209.6
		L304.1,107.4 L317.7,53.1 L329.8,104.8 L340.6,122.2 L350.3,101.5 L359.2,149.8 L367.4,183.2 L375.0,110.0
		L382.0,88.6 L388.6,115.1 L394.8,98.7 L400.7,164.9 L406.2,156.0 L411.4,166.9 L416.4,100.0 L421.2,107.2
		L425.7,121.1 L430.1,106.1 L434.3,92.8 L438.3,94.4 L442.1,128.0 L445.9,118.4 L449.4,104.0 L452.9,231.5
		L456.3,119.5 L459.5,142.5 L462.7,221.4 L465.7,183.2 L468.7,114.3 L471.6,228.6 L474.4,173.1 L477.1,135.6
		L479.7,277.2 L482.3,173.9 L484.9,209.6 L487.3,130.2 L489.7,116.7 L492.1,117.8 L494.4,135.9 L496.6,139.3
		L498.8,130.8 L501.0,180.5 L503.1,136.9 L505.1,190.4 L507.2,297.1 L509.2,96.9 L511.1,141.4 L513.0,189.2
		L514.9,131.1 L516.7,217.1 L518.5,140.7 L520.3,151.2 L522.1,132.8 L523.8,126.4 L525.5,263.5 L527.1,156.5
		L528.8,135.3 L530.4,206.3 L532.0,102.6 L533.5,182.3 L535.1,144.4 L536.6,159.1 L538.1,173.9 L539.6,211.3
		L541.0,143.6 L542.4,119.1 L543.8,116.9 L545.2,189.2 L546.6,163.1 L548.0,148.1 L549.3,146.4 L550.6,180.5
		L551.9,193.8 L553.2,137.2 L554.5,182.3 L555.7,172.4 L557.0,173.9 L558.2,156.0 L559.4,143.3 L560.6,184.2
		L561.8,142.5 L563.0,197.6 L564.1,148.5 L565.3,149.8 L566.4,149.0 L567.5,137.2 L568.6,158.0 L569.7,158.6
		L570.8,137.2 L571.9,269.4 L572.9,248.4 L574.0,158.0 L575.0,166.9  '/></g>
	</g>
	<g id="gnuplot_plot_2" ><title>Pthreads solution</title>
<g fill="none" color="black" stroke="currentColor" stroke-width="2.00" stroke-linecap="butt" stroke-linejoin="miter">
	<g transform="translate(507.9,58.0)" stroke="none" fill="black" font-family="Arial" font-size="12.00"  text-anchor="end">
		<text><tspan font-family="Arial" >Pthreads solution</tspan></text>
	</g>
</g>
<g fill="none" color="black" stroke="currentColor" stroke-width="2.00" stroke-linecap="butt" stroke-linejoin="miter">
	<path stroke='rgb(  0, 158, 115)' stroke-dasharray=' 5,8'  d='M516.2,54.1 L558.4,54.1 M105.1,50.0 L176.0,47.5 L217.4,58.4 L246.9,111.1 L269.7,182.3 L288.3,140.3
		L304.1,161.3 L317.7,228.6 L329.8,181.3 L340.6,277.2 L350.3,117.3 L359.2,198.9 L367.4,334.9 L375.0,157.0
		L382.0,170.2 L388.6,244.7 L394.8,221.4 L400.7,150.7 L406.2,172.4 L411.4,163.1 L416.4,192.7 L421.2,190.4
		L425.7,180.5 L430.1,123.4 L434.3,124.9 L438.3,112.0 L442.1,116.3 L445.9,113.5 L449.4,126.4 L452.9,115.5
		L456.3,115.5 L459.5,113.1 L462.7,118.9 L465.7,117.6 L468.7,124.4 L471.6,137.6 L474.4,136.3 L477.1,132.0
		L479.7,129.1 L482.3,136.9 L484.9,137.6 L487.3,142.5 L489.7,136.3 L492.1,138.3 L494.4,114.7 L496.6,109.1
		L498.8,105.4 L501.0,104.5 L503.1,106.1 L505.1,105.1 L507.2,107.4 L509.2,111.6 L511.1,112.4 L513.0,112.4
		L514.9,108.1 L516.7,104.2 L518.5,107.4 L520.3,106.7 L522.1,231.5 L523.8,285.4 L525.5,217.1 L527.1,231.5
		L528.8,226.2 L530.4,190.4 L532.0,186.2 L533.5,192.7 L535.1,263.5 L536.6,244.7 L538.1,263.5 L539.6,206.3
		L541.0,334.9 L542.4,379.6 L543.8,219.1 L545.2,215.0 L546.6,285.4 L548.0,231.5 L549.3,213.2 L550.6,217.1
		L551.9,206.3 L553.2,221.4 L554.5,176.2 L555.7,176.2 L557.0,176.2 L558.2,171.6 L559.4,164.9 L560.6,179.6
		L561.8,179.6 L563.0,211.3 L564.1,201.7 L565.3,196.3 L566.4,118.4 L567.5,118.9 L568.6,118.4 L569.7,117.1
		L570.8,121.5 L571.9,121.1 L572.9,125.4 L574.0,117.6 L575.0,121.1  '/></g>
	</g>
<g fill="none" color="black" stroke="currentColor" stroke-width="2.00" stroke-linecap="butt" stroke-linejoin="miter">
</g>
<g fill="none" color="black" stroke="black" stroke-width="1.00" stroke-linecap="butt" stroke-linejoin="miter">
</g>
<g fill="none" color="black" stroke="currentColor" stroke-width="1.00" stroke-linecap="butt" stroke-linejoin="miter">
	<path stroke='black'  d='M105.1,18.1 L105.1,422.4 L575.0,422.4 L575.0,18.1 L105.1,18.1 Z  '/></g>
<g fill="none" color="black" stroke="currentColor" stroke-width="1.00" stroke-linecap="butt" stroke-linejoin="miter">
</g>
</g>
</svg>

