\relax 
\newlabel{eq:erf}{{1}{1}}
\newlabel{eq:odd}{{2}{1}}
\newlabel{eq:complex}{{3}{1}}
\newlabel{eq:ddx}{{4}{1}}
\@writefile{lof}{\contentsline {figure}{\numberline {1}{\ignorespaces Plot of the error function.}}{1}}
\newlabel{fig:errfunc}{{1}{1}}
\@writefile{lot}{\contentsline {table}{\numberline {1}{\ignorespaces The error function calculated in some points.}}{1}}
\newlabel{table:values}{{1}{1}}
