0 4.78894
0.1 4.67969
0.2 4.57379
0.3 4.47114
0.4 4.37165
0.5 4.27521
0.6 4.18173
0.7 4.09113
0.8 4.00331
0.9 3.91818
1 3.83567
1.1 3.7557
1.2 3.67818
1.3 3.60304
1.4 3.53021
1.5 3.45962
1.6 3.39119
1.7 3.32487
1.8 3.26058
1.9 3.19827
2 3.13787
2.1 3.07933
2.2 3.02259
2.3 2.96759
2.4 2.91428
2.5 2.8626
2.6 2.81251
2.7 2.76397
2.8 2.71691
2.9 2.6713
3 2.62709
3.1 2.58423
3.2 2.5427
3.3 2.50243
3.4 2.46341
3.5 2.42558
3.6 2.38892
3.7 2.35338
3.8 2.31894
3.9 2.28555
4 2.25319
4.1 2.22182
4.2 2.19141
4.3 2.16194
4.4 2.13338
4.5 2.10569
4.6 2.07885
4.7 2.05284
4.8 2.02762
4.9 2.00318
5 1.97949
5.1 1.95653
5.2 1.93427
5.3 1.9127
5.4 1.89179
5.5 1.87152
5.6 1.85188
5.7 1.83283
5.8 1.81438
5.9 1.79649
6 1.77915
6.1 1.76234
6.2 1.74605
6.3 1.73025
6.4 1.71495
6.5 1.70011
6.6 1.68573
6.7 1.67179
6.8 1.65828
6.9 1.64519
7 1.63249
7.1 1.62019
7.2 1.60826
7.3 1.5967
7.4 1.5855
7.5 1.57464
7.6 1.56411
7.7 1.55391
7.8 1.54402
7.9 1.53443
8 1.52514
8.1 1.51614
8.2 1.50741
8.3 1.49894
8.4 1.49074
8.5 1.48279
8.6 1.47509
8.7 1.46762
8.8 1.46038
8.9 1.45336
9 1.44656
9.1 1.43997
9.2 1.43358
9.3 1.42738
9.4 1.42138
9.5 1.41556
9.6 1.40992
9.7 1.40445
