\relax 
\newlabel{eq:1storder}{{3}{1}}
\@writefile{lof}{\contentsline {figure}{\numberline {1}{\ignorespaces $<$math.h$>$ sine function along with my ODE implementation.}}{1}}
\newlabel{fig:figure}{{1}{1}}
